{
  "defaultSeverity": "error",
  "extends": ["tslint:recommended"],
  "jsRules": {},
  "rules": {
    "interface-name": [true],
    "no-console": {
      "severity": "error"
    },
    "quotemark": [true, "double"],
    "semicolon": [true, "always"]
  },
  "rulesDirectory": []
}
